<svg xmlns="http://www.w3.org/2000/svg" width="81" height="21" viewBox="0 0 81 21">
  <text id="User_Group" data-name="User Group" transform="translate(0 17)" fill="#494747" font-size="16" font-family="Roboto-Bold, Roboto" font-weight="700"><tspan x="0" y="0">User Group</tspan></text>
</svg>
